^C:\USERS\DEATH\DOCUMENTS\BASPRG2-FINALS-POKEMON\BASPRG2_FINALS_POKEMON_LABACO\BASPRG2_FINALS_POKEMON_LABACO\MAP.CPP|C:\USERS\DEATH\DOCUMENTS\BASPRG2-FINALS-POKEMON\BASPRG2_FINALS_POKEMON_LABACO\BASPRG2_FINALS_POKEMON_LABACO\POKEMON.CPP|C:\USERS\DEATH\DOCUMENTS\BASPRG2-FINALS-POKEMON\BASPRG2_FINALS_POKEMON_LABACO\BASPRG2_FINALS_POKEMON_LABACO\SOURCE.CPP|C:\USERS\DEATH\DOCUMENTS\BASPRG2-FINALS-POKEMON\BASPRG2_FINALS_POKEMON_LABACO\BASPRG2_FINALS_POKEMON_LABACO\TRAINER.CPP
C:\USERS\DEATH\DOCUMENTS\BASPRG2-FINALS-POKEMON\BASPRG2_FINALS_POKEMON_LABACO\BASPRG2_FINALS_POKEMON_LABACO\DEBUG\VC142.PDB
C:\USERS\DEATH\DOCUMENTS\BASPRG2-FINALS-POKEMON\BASPRG2_FINALS_POKEMON_LABACO\BASPRG2_FINALS_POKEMON_LABACO\DEBUG\VC142.IDB
C:\USERS\DEATH\DOCUMENTS\BASPRG2-FINALS-POKEMON\BASPRG2_FINALS_POKEMON_LABACO\BASPRG2_FINALS_POKEMON_LABACO\DEBUG\TRAINER.OBJ
C:\USERS\DEATH\DOCUMENTS\BASPRG2-FINALS-POKEMON\BASPRG2_FINALS_POKEMON_LABACO\BASPRG2_FINALS_POKEMON_LABACO\DEBUG\SOURCE.OBJ
C:\USERS\DEATH\DOCUMENTS\BASPRG2-FINALS-POKEMON\BASPRG2_FINALS_POKEMON_LABACO\BASPRG2_FINALS_POKEMON_LABACO\DEBUG\MAP.OBJ
^C:\USERS\DEATH\DOCUMENTS\BASPRG2-FINALS-POKEMON\BASPRG2_FINALS_POKEMON_LABACO\BASPRG2_FINALS_POKEMON_LABACO\MAP.CPP
C:\USERS\DEATH\DOCUMENTS\BASPRG2-FINALS-POKEMON\BASPRG2_FINALS_POKEMON_LABACO\BASPRG2_FINALS_POKEMON_LABACO\DEBUG\MAP.OBJ
^C:\USERS\DEATH\DOCUMENTS\BASPRG2-FINALS-POKEMON\BASPRG2_FINALS_POKEMON_LABACO\BASPRG2_FINALS_POKEMON_LABACO\POKEMON.CPP|C:\USERS\DEATH\DOCUMENTS\BASPRG2-FINALS-POKEMON\BASPRG2_FINALS_POKEMON_LABACO\BASPRG2_FINALS_POKEMON_LABACO\SOURCE.CPP|C:\USERS\DEATH\DOCUMENTS\BASPRG2-FINALS-POKEMON\BASPRG2_FINALS_POKEMON_LABACO\BASPRG2_FINALS_POKEMON_LABACO\TRAINER.CPP
C:\USERS\DEATH\DOCUMENTS\BASPRG2-FINALS-POKEMON\BASPRG2_FINALS_POKEMON_LABACO\BASPRG2_FINALS_POKEMON_LABACO\DEBUG\VC142.PDB
C:\USERS\DEATH\DOCUMENTS\BASPRG2-FINALS-POKEMON\BASPRG2_FINALS_POKEMON_LABACO\BASPRG2_FINALS_POKEMON_LABACO\DEBUG\VC142.IDB
C:\USERS\DEATH\DOCUMENTS\BASPRG2-FINALS-POKEMON\BASPRG2_FINALS_POKEMON_LABACO\BASPRG2_FINALS_POKEMON_LABACO\DEBUG\TRAINER.OBJ
C:\USERS\DEATH\DOCUMENTS\BASPRG2-FINALS-POKEMON\BASPRG2_FINALS_POKEMON_LABACO\BASPRG2_FINALS_POKEMON_LABACO\DEBUG\SOURCE.OBJ
C:\USERS\DEATH\DOCUMENTS\BASPRG2-FINALS-POKEMON\BASPRG2_FINALS_POKEMON_LABACO\BASPRG2_FINALS_POKEMON_LABACO\DEBUG\POKEMON.OBJ
^C:\USERS\DEATH\DOCUMENTS\BASPRG2-FINALS-POKEMON\BASPRG2_FINALS_POKEMON_LABACO\BASPRG2_FINALS_POKEMON_LABACO\POKEMON.CPP
C:\USERS\DEATH\DOCUMENTS\BASPRG2-FINALS-POKEMON\BASPRG2_FINALS_POKEMON_LABACO\BASPRG2_FINALS_POKEMON_LABACO\DEBUG\VC142.PDB
^C:\USERS\DEATH\DOCUMENTS\BASPRG2-FINALS-POKEMON\BASPRG2_FINALS_POKEMON_LABACO\BASPRG2_FINALS_POKEMON_LABACO\SOURCE.CPP
C:\USERS\DEATH\DOCUMENTS\BASPRG2-FINALS-POKEMON\BASPRG2_FINALS_POKEMON_LABACO\BASPRG2_FINALS_POKEMON_LABACO\DEBUG\VC142.PDB
^C:\USERS\DEATH\DOCUMENTS\BASPRG2-FINALS-POKEMON\BASPRG2_FINALS_POKEMON_LABACO\BASPRG2_FINALS_POKEMON_LABACO\TRAINER.CPP
C:\USERS\DEATH\DOCUMENTS\BASPRG2-FINALS-POKEMON\BASPRG2_FINALS_POKEMON_LABACO\BASPRG2_FINALS_POKEMON_LABACO\DEBUG\VC142.PDB
