^C:\USERS\DEATH\DOCUMENTS\BASPRG2-FINALS-POKEMON\BASPRG2_FINALS_POKEMON_LABACO\BASPRG2_FINALS_POKEMON_LABACO\DEBUG\MAP.OBJ|C:\USERS\DEATH\DOCUMENTS\BASPRG2-FINALS-POKEMON\BASPRG2_FINALS_POKEMON_LABACO\BASPRG2_FINALS_POKEMON_LABACO\DEBUG\POKEMON.OBJ|C:\USERS\DEATH\DOCUMENTS\BASPRG2-FINALS-POKEMON\BASPRG2_FINALS_POKEMON_LABACO\BASPRG2_FINALS_POKEMON_LABACO\DEBUG\SOURCE.OBJ|C:\USERS\DEATH\DOCUMENTS\BASPRG2-FINALS-POKEMON\BASPRG2_FINALS_POKEMON_LABACO\BASPRG2_FINALS_POKEMON_LABACO\DEBUG\TRAINER.OBJ
C:\PROGRAM FILES (X86)\WINDOWS KITS\10\LIB\10.0.17763.0\UM\X86\KERNEL32.LIB
C:\PROGRAM FILES (X86)\WINDOWS KITS\10\LIB\10.0.17763.0\UM\X86\USER32.LIB
C:\PROGRAM FILES (X86)\WINDOWS KITS\10\LIB\10.0.17763.0\UM\X86\GDI32.LIB
C:\PROGRAM FILES (X86)\WINDOWS KITS\10\LIB\10.0.17763.0\UM\X86\WINSPOOL.LIB
C:\PROGRAM FILES (X86)\WINDOWS KITS\10\LIB\10.0.17763.0\UM\X86\COMDLG32.LIB
C:\PROGRAM FILES (X86)\WINDOWS KITS\10\LIB\10.0.17763.0\UM\X86\ADVAPI32.LIB
C:\PROGRAM FILES (X86)\WINDOWS KITS\10\LIB\10.0.17763.0\UM\X86\SHELL32.LIB
C:\PROGRAM FILES (X86)\WINDOWS KITS\10\LIB\10.0.17763.0\UM\X86\OLE32.LIB
C:\PROGRAM FILES (X86)\WINDOWS KITS\10\LIB\10.0.17763.0\UM\X86\OLEAUT32.LIB
C:\PROGRAM FILES (X86)\WINDOWS KITS\10\LIB\10.0.17763.0\UM\X86\UUID.LIB
C:\PROGRAM FILES (X86)\WINDOWS KITS\10\LIB\10.0.17763.0\UM\X86\ODBC32.LIB
C:\PROGRAM FILES (X86)\WINDOWS KITS\10\LIB\10.0.17763.0\UM\X86\ODBCCP32.LIB
C:\USERS\DEATH\DOCUMENTS\BASPRG2-FINALS-POKEMON\BASPRG2_FINALS_POKEMON_LABACO\BASPRG2_FINALS_POKEMON_LABACO\DEBUG\MAP.OBJ
C:\USERS\DEATH\DOCUMENTS\BASPRG2-FINALS-POKEMON\BASPRG2_FINALS_POKEMON_LABACO\BASPRG2_FINALS_POKEMON_LABACO\DEBUG\POKEMON.OBJ
C:\USERS\DEATH\DOCUMENTS\BASPRG2-FINALS-POKEMON\BASPRG2_FINALS_POKEMON_LABACO\BASPRG2_FINALS_POKEMON_LABACO\DEBUG\SOURCE.OBJ
C:\USERS\DEATH\DOCUMENTS\BASPRG2-FINALS-POKEMON\BASPRG2_FINALS_POKEMON_LABACO\BASPRG2_FINALS_POKEMON_LABACO\DEBUG\TRAINER.OBJ
C:\WINDOWS\GLOBALIZATION\SORTING\SORTDEFAULT.NLS
C:\PROGRAM FILES (X86)\MICROSOFT VISUAL STUDIO\2019\COMMUNITY\VC\TOOLS\MSVC\14.21.27702\LIB\X86\MSVCPRTD.LIB
C:\PROGRAM FILES (X86)\MICROSOFT VISUAL STUDIO\2019\COMMUNITY\VC\TOOLS\MSVC\14.21.27702\LIB\X86\MSVCRTD.LIB
C:\PROGRAM FILES (X86)\MICROSOFT VISUAL STUDIO\2019\COMMUNITY\VC\TOOLS\MSVC\14.21.27702\LIB\X86\OLDNAMES.LIB
C:\PROGRAM FILES (X86)\MICROSOFT VISUAL STUDIO\2019\COMMUNITY\VC\TOOLS\MSVC\14.21.27702\LIB\X86\VCRUNTIMED.LIB
C:\PROGRAM FILES (X86)\WINDOWS KITS\10\LIB\10.0.17763.0\UCRT\X86\UCRTD.LIB
C:\PROGRAM FILES (X86)\MICROSOFT VISUAL STUDIO\2019\COMMUNITY\VC\TOOLS\MSVC\14.21.27702\BIN\HOSTX86\X86\CVTRES.EXE
C:\PROGRAM FILES (X86)\MICROSOFT VISUAL STUDIO\2019\COMMUNITY\VC\TOOLS\MSVC\14.21.27702\BIN\HOSTX86\X86\MSPDBSRV.EXE
C:\PROGRAM FILES (X86)\MICROSOFT VISUAL STUDIO\2019\COMMUNITY\VC\TOOLS\MSVC\14.21.27702\BIN\HOSTX86\X86\VCTIP.EXE
